Sleep Disorder
…
Summary of Gradient Boosting Machine The naive MAE represents the error when predicting the mean value of the quality of sleep for all instances, serving as a baseline for comparison. The substantial reduction in MAE from the naive model (1.08) to the tuned GBM model (0.11) on the testing set indicates a significant improvement in predictive accuracy. Similarly, the training MAE for the GBM model (0.08) is much lower than the naive training MAE (1.03), demonstrating that the model effectively learned the patterns in the training data. These results suggest that the GBM model is well-tuned and capable of making accurate predictions, with minimal error, on both the training and testing datasets.

trainData

# A tibble: 263 × 15
# Rowwise: 
   Person.ID Gender   Age Occupation           Sleep.Duration Quality.of.Sleep
       <int> <chr>  <int> <chr>                         <dbl>            <int>
 1         1 Male      27 Software Engineer               6.1                6
 2         2 Male      28 Doctor                          6.2                6
 3         3 Male      28 Doctor                          6.2                6
 4         5 Male      28 Sales Representative            5.9                4
 5         7 Male      29 Teacher                         6.3                6
 6         8 Male      29 Doctor                          7.8                7
 7         9 Male      29 Doctor                          7.8                7
 8        10 Male      29 Doctor                          7.8                7
 9        11 Male      29 Doctor                          6.1                6
10        12 Male      29 Doctor                          7.8                7
# ℹ 253 more rows
# ℹ 9 more variables: Physical.Activity.Level <int>, Stress.Level <int>,
#   BMI.Category <chr>, `Systolic Pressure` <dbl>, `Diastolic Pressure` <dbl>,
#   Heart.Rate <int>, Daily.Steps <int>, Sleep.Disorder <chr>,
#   Blood.Pressure.Category <chr>
…
